<svg id="_3358992" data-name="3358992" xmlns="http://www.w3.org/2000/svg" width="76.146" height="76.146" viewBox="0 0 76.146 76.146">
  <path id="Path_993" data-name="Path 993" d="M61.868,76.145H14.277A14.276,14.276,0,0,1,0,61.868V14.277A14.276,14.276,0,0,1,14.277,0H61.868A14.276,14.276,0,0,1,76.146,14.277V61.868A14.276,14.276,0,0,1,61.868,76.145Z" fill="#fff"/>
  <path id="Path_994" data-name="Path 994" d="M25.916,27.036h-.792a2.78,2.78,0,0,1-2.777-2.777V20.69H18.777A2.78,2.78,0,0,1,16,17.913v-.792a2.78,2.78,0,0,1,2.777-2.777h3.569V10.775A2.777,2.777,0,0,1,25.121,8h.792a2.78,2.78,0,0,1,2.777,2.777v3.569h3.569a2.78,2.78,0,0,1,2.777,2.777v.792a2.78,2.78,0,0,1-2.777,2.777H28.69v3.569A2.777,2.777,0,0,1,25.916,27.036Z" transform="translate(22.073 11.036)" fill="#55bc7e"/>
  <g id="Group_13125" data-name="Group 13125" transform="translate(19.036 38.072)">
    <path id="Path_995" data-name="Path 995" d="M8.78,16A.8.8,0,0,0,8,16.8v14.67a.4.4,0,0,0,.4.4h3.762a.8.8,0,0,0,.764-.576l3.51-12.371A1.586,1.586,0,0,0,15.45,17,18.507,18.507,0,0,0,8.78,16Z" transform="translate(-8 -16)" fill="#55bc7e"/>
    <path id="Path_996" data-name="Path 996" d="M38.532,23.051c-3.172,0-9.518,4.017-12.69,4.017S19.1,24.636,19.1,24.636a49.466,49.466,0,0,0,6.741.792c2.468,0,3.172-.842,3.172-1.982,0-2.777-4.716-3.208-7.1-3.569-2.341-1.3-3.557-2.334-7.436-2.663a4.2,4.2,0,0,1-.121.676L11.167,29.121c3.61,1.64,9.825,4.24,13.088,4.24,4.759,0,17.449-6.346,17.449-7.931S40.117,23.051,38.532,23.051Z" transform="translate(-3.631 -14.324)" fill="#55bc7e"/>
  </g>
</svg>
